mape_r-01: reto #1
…
2.3 contar casos por provincia y ubicacin con count

Aqu solo usar las siguientes 4 variables:

hubei: categrica dicotmica in o out,

latitude y

longitude

## # A tibble: 693 x 4
##    hubei latitude longitude     n
##    <chr>    <dbl>     <dbl> <int>
##  1 in        30.6      114.  3794
##  2 in        30.5      115.   719
##  3 in        30.9      114.   523
##  4 in        32.0      112.   380
##  5 in        30.7      111.   341
##  6 in        31.7      113.   311
##  7 in        31.0      112.   301
##  8 in        30.3      112.   253
##  9 in        30.4      115.   251
## 10 in        30.2      115.   219
## # ... with 683 more rows

2.4 transformar a formato sf con geometry

## Simple feature collection with 693 features and 4 fields
## Attribute-geometry relationship: 4 constant, 0 aggregate, 0 identity
## geometry type:  POINT
## dimension:      XY
## bbox:           xmin: 76 ymin: 18 xmax: 130 ymax: 50
## epsg (SRID):    4610
## proj4string:    +proj=longlat +a=6378140 +b=6356755.288157528 +no_defs
## # A tibble: 693 x 5
##    hubei latitude longitude     n    geometry
##    <chr>    <dbl>     <dbl> <int> <POINT []>
##  1 in        30.6      114.  3794    (114 31)
##  2 in        30.5      115.   719    (115 30)
##  3 in        30.9      114.   523    (114 31)
##  4 in        32.0      112.   380    (112 32)
##  5 in        30.7      111.   341    (111 31)
##  6 in        31.7      113.   311    (113 32)
##  7 in        31.0      112.   301    (112 31)
##  8 in        30.3      112.   253    (112 30)
##  9 in        30.4      115.   251    (115 30)
## 10 in        30.2      115.   219    (115 30)
## # ... with 683 more rows
…
