mape_r-01: bivariate point pattern
…
# object structure
str(preston_crime)

4 transform data

# from ppp to tibble -----------------------

gpsrino <- preston_crime %>% as_tibble()
gpsrino %>% class()

## [1] "tbl_df"     "tbl"        "data.frame"

gpsrino

## # A tibble: 2,036 x 3
##          x       y marks            
##      <dbl>   <dbl> <fct>            
##  1 354558. 429074. Non-violent crime
##  2 353666. 429243. Non-violent crime
##  3 355801. 430015. Non-violent crime
##  4 352859. 429319. Non-violent crime
##  5 353560. 430174. Non-violent crime
##  6 351079. 431580. Non-violent crime
##  7 351046. 431497. Non-violent crime
##  8 354018. 429239. Non-violent crime
##  9 350119. 430782. Non-violent crime
## 10 355248. 431478. Non-violent crime
## # ... with 2,026 more rows
…
house %>% class()

## [1] "sf"         "tbl_df"     "tbl"        "data.frame"

house

## Simple feature collection with 2036 features and 3 fields
## Attribute-geometry relationship: 3 constant, 0 aggregate, 0 identity
## geometry type:  POINT
## dimension:      XY
## bbox:           xmin: 350000 ymin: 430000 xmax: 360000 ymax: 430000
## epsg (SRID):    27561
## proj4string:    +proj=lcc +lat_1=49.50000000000001 +lat_0=49.50000000000001 +lon_0=0 +k_0=0.999877341 +x_0=600000 +y_0=200000 +a=6378249.2 +b=6356515 +towgs84=-168,-60,320,0,0,0,0 +pm=paris +units=m +no_defs
## # A tibble: 2,036 x 4
##          x       y marks                    geometry
##      <dbl>   <dbl> <fct>                 <POINT [m]>
##  1 354558. 429074. Non-violent crime (354558 429074)
##  2 353666. 429243. Non-violent crime (353666 429243)
##  3 355801. 430015. Non-violent crime (355801 430015)
##  4 352859. 429319. Non-violent crime (352859 429319)
##  5 353560. 430174. Non-violent crime (353560 430174)
##  6 351079. 431580. Non-violent crime (351079 431580)
##  7 351046. 431497. Non-violent crime (351046 431497)
##  8 354018. 429239. Non-violent crime (354018 429239)
##  9 350119. 430782. Non-violent crime (350119 430782)
## 10 355248. 431478. Non-violent crime (355248 431478)
## # ... with 2,026 more rows
…
